{
  "project_info": {
    "project_number": "740950762461",
    "firebase_url": "https://retate-d1a3d.firebaseio.com",
    "project_id": "retate-d1a3d",
    "storage_bucket": "retate-d1a3d.appspot.com"
  },
  "client": [
    {
      "client_info": {
        "mobilesdk_app_id": "1:740950762461:android:e6a8a9544de86882180c34",
        "android_client_info": {
          "package_name": "cat.itb.retate"
        }
      },
      "oauth_client": [
        {
          "client_id": "740950762461-mhol5uc0vbdtrtdkke8o958229kof5cn.apps.googleusercontent.com",
          "client_type": 1,
          "android_info": {
            "package_name": "cat.itb.retate",
            "certificate_hash": "eec3a0c4841fa4a7b161417fd0edddaee21a6cc5"
          }
        },
        {
          "client_id": "740950762461-scmj1ao9g33lkjtiqjglb64e7mnuaiao.apps.googleusercontent.com",
          "client_type": 1,
          "android_info": {
            "package_name": "cat.itb.retate",
            "certificate_hash": "e824e57848082f3e0786125cb20058a44d2d8fdb"
          }
        },
        {
          "client_id": "740950762461-iqlv9d1ktjivmn4bi7f1c7mvieq1epmp.apps.googleusercontent.com",
          "client_type": 3
        }
      ],
      "api_key": [
        {
          "current_key": "AIzaSyBo-tpksBVlfNHO3pgvy25LQNwLVIZz7W4"
        }
      ],
      "services": {
        "appinvite_service": {
          "other_platform_oauth_client": [
            {
              "client_id": "740950762461-iqlv9d1ktjivmn4bi7f1c7mvieq1epmp.apps.googleusercontent.com",
              "client_type": 3
            }
          ]
        }
      }
    }
  ],
  "configuration_version": "1"
}